DS養成講座 Jリーグ観客動員数を予測せよ！
…
by_stage_train <- by_stage_train %>%
    mutate(model = map(data, stage_model))

by_stage_train <- by_stage_train %>%
    mutate(
        pred = map2(data, model, add_predictions),
        resids = map2(data, model, add_residuals)
    )

by_stage_train

## # A tibble: 51 x 6
##    stage               home              data     model              pred
##    <chr>              <chr>            <list>    <list>            <list>
##  1  Ｊ１       ベガルタ仙台 <tibble [42 x 6]> <S3: glm> <tibble [42 x 7]>
##  2  Ｊ１   名古屋グランパス <tibble [43 x 6]> <S3: glm> <tibble [43 x 7]>
##  3  Ｊ１         ガンバ大阪 <tibble [25 x 6]> <S3: glm> <tibble [25 x 7]>
##  4  Ｊ１ サンフレッチェ広島 <tibble [43 x 6]> <S3: glm> <tibble [43 x 7]>
##  5  Ｊ１   コンサドーレ札幌 <tibble [17 x 6]> <S3: glm> <tibble [17 x 7]>
##  6  Ｊ１         サガン鳥栖 <tibble [42 x 6]> <S3: glm> <tibble [42 x 7]>
##  7  Ｊ１   川崎フロンターレ <tibble [43 x 6]> <S3: glm> <tibble [43 x 7]>
##  8  Ｊ１ 大宮アルディージャ <tibble [42 x 6]> <S3: glm> <tibble [42 x 7]>
##  9  Ｊ１         柏レイソル <tibble [43 x 6]> <S3: glm> <tibble [43 x 7]>
## 10  Ｊ１         浦和レッズ <tibble [42 x 6]> <S3: glm> <tibble [42 x 7]>
## # ... with 41 more rows, and 1 more variables: resids <list>
…
