DS養成講座 Jリーグ観客動員数を予測せよ！
…
より、オフセット項の利用を実施してみたが、予測結果は観客数のそれに近い。

割算よりも対数オッズを利用することで、収容率を0~1に変換していることが効いているのかと推測される。

5 Residuals

options(tibble.width = Inf)

train2 <- as.tibble(train2)

train2 %>%
    arrange(desc(resid2)) %>%
    select(resid2, y, capa, tv_num_2, home, away, stadium) 

## # A tibble: 1,952 x 7
##      resid2     y  capa tv_num_2             home               away                stadium
##       <dbl> <int> <int>    <dbl>            <chr>              <chr>                  <chr>
##  1 32139.40 62632 72327        2 横浜Ｆ・マリノス アルビレックス新潟         日産スタジアム
##  2 28049.48 54905 63700        2       浦和レッズ       セレッソ大阪 埼玉スタジアム２００２
##  3 27494.48 54350 63700        2       浦和レッズ       セレッソ大阪 埼玉スタジアム２００２
##  4 25437.48 52293 63700        2       浦和レッズ   名古屋グランパス 埼玉スタジアム２００２
##  5 22759.21 51879 63700        3       浦和レッズ   名古屋グランパス 埼玉スタジアム２００２
##  6 22564.08 42723 47816        2     セレッソ大阪         ガンバ大阪 ヤンマースタジアム長居
##  7 21430.50 40761 49970        1         ＦＣ東京       セレッソ大阪       味の素スタジアム
##  8 21040.50 40371 49970        1         ＦＣ東京       セレッソ大阪       味の素スタジアム
##  9 20934.48 47790 63700        2       浦和レッズ 大宮アルディージャ 埼玉スタジアム２００２
## 10 20680.42 38966 40000        3 名古屋グランパス       セレッソ大阪         豊田スタジアム
## # ... with 1,942 more rows
…
